paratoserial.vcd
$date
	Tue Jun 23 23:49:04 2020
$end
$version
	Icarus Verilog
$end
$timescale
	1ps
$end
$scope module BUF $end
$var wire 1 ! A $end
$var wire 1 " Y $end
$upscope $end
$scope module DFFSR $end
$var wire 1 # C $end
$var wire 1 $ D $end
$var wire 1 % R $end
$var wire 1 & S $end
$var reg 1 ' Q $end
$upscope $end
$scope module NAND $end
$var wire 1 ( A $end
$var wire 1 ) B $end
$var wire 1 * Y $end
$upscope $end
$scope module NOR $end
$var wire 1 + A $end
$var wire 1 , B $end
$var wire 1 - Y $end
$upscope $end
$scope module NOT $end
$var wire 1 . A $end
$var wire 1 / Y $end
$upscope $end
$scope module paratoserial_tb $end
$var wire 1 0 valid_1 $end
$var wire 1 1 valid_0 $end
$var wire 1 2 reset $end
$var wire 1 3 out1_s $end
$var wire 1 4 out1 $end
$var wire 1 5 out0_s $end
$var wire 1 6 out0 $end
$var wire 8 7 in1 [7:0] $end
$var wire 8 8 in0 [7:0] $end
$var wire 1 9 clk8f $end
$scope module ptos_behav $end
$var wire 1 0 valid_1 $end
$var wire 1 1 valid_0 $end
$var wire 1 2 reset $end
$var wire 1 : out11 $end
$var wire 1 ; out00 $end
$var wire 8 < in1 [7:0] $end
$var wire 8 = in0 [7:0] $end
$var wire 1 9 clk $end
$var reg 1 6 out0 $end
$var reg 1 4 out1 $end
$scope module ptos1 $end
$var wire 1 2 reset $end
$var wire 1 1 in_valid $end
$var wire 8 > in [7:0] $end
$var wire 1 9 clk $end
$var reg 1 ? in0 $end
$var reg 1 @ in1 $end
$var reg 1 A in2 $end
$var reg 1 B in3 $end
$var reg 1 C in4 $end
$var reg 1 D in5 $end
$var reg 1 E in6 $end
$var reg 1 F in7 $end
$var reg 1 ; out $end
$var reg 3 G selector [2:0] $end
$upscope $end
$scope module ptos2 $end
$var wire 1 2 reset $end
$var wire 1 0 in_valid $end
$var wire 8 H in [7:0] $end
$var wire 1 9 clk $end
$var reg 1 I in0 $end
$var reg 1 J in1 $end
$var reg 1 K in2 $end
$var reg 1 L in3 $end
$var reg 1 M in4 $end
$var reg 1 N in5 $end
$var reg 1 O in6 $end
$var reg 1 P in7 $end
$var reg 1 : out $end
$var reg 3 Q selector [2:0] $end
$upscope $end
$upscope $end
$scope module ptos_syn $end
$var wire 1 5 out0 $end
$var wire 1 3 out1 $end
$var wire 1 0 valid_1 $end
$var wire 1 1 valid_0 $end
$var wire 1 2 reset $end
$var wire 1 R out11 $end
$var wire 1 S out00 $end
$var wire 8 T in1 [7:0] $end
$var wire 8 U in0 [7:0] $end
$var wire 1 9 clk $end
$scope module ptos1 $end
$var wire 1 V _03_ $end
$var wire 1 W _04_ $end
$var wire 1 X _05_ $end
$var wire 1 Y _06_ $end
$var wire 1 Z _11_ $end
$var wire 1 [ _14_ $end
$var wire 1 \ _15_ $end
$var wire 1 ] _16_ $end
$var wire 1 ^ _17_ $end
$var wire 1 _ _18_ $end
$var wire 1 ` _19_ $end
$var wire 1 a _21_ $end
$var wire 1 b _23_ $end
$var wire 1 c _24_ $end
$var wire 1 d _25_ $end
$var wire 1 e _26_ $end
$var wire 1 f _27_ $end
$var wire 1 g _28_ $end
$var wire 1 h _29_ $end
$var wire 1 i _31_ $end
$var wire 3 j selector [2:0] $end
$var wire 1 2 reset $end
$var wire 1 S out $end
$var wire 1 1 in_valid $end
$var wire 1 k in7 $end
$var wire 1 l in6 $end
$var wire 1 m in5 $end
$var wire 1 n in4 $end
$var wire 1 o in3 $end
$var wire 1 p in2 $end
$var wire 1 q in1 $end
$var wire 1 r in0 $end
$var wire 8 s in [7:0] $end
$var wire 1 9 clk $end
$var wire 32 t _30_ [31:0] $end
$var wire 1 u _22_ $end
$var wire 7 v _20_ [6:0] $end
$var wire 3 w _13_ [2:0] $end
$var wire 3 x _12_ [2:0] $end
$var wire 2 y _10_ [1:0] $end
$var wire 3 z _09_ [2:0] $end
$var wire 2 { _08_ [1:0] $end
$var wire 3 | _07_ [2:0] $end
$var wire 32 } _02_ [31:0] $end
$var wire 3 ~ _01_ [2:0] $end
$var wire 1 !" _00_ $end
$scope module _75_ $end
$var wire 1 !" D $end
$var wire 1 9 C $end
$var reg 1 S Q $end
$upscope $end
$scope module _76_ $end
$var wire 1 "" D $end
$var wire 1 9 C $end
$var reg 1 #" Q $end
$upscope $end
$scope module _77_ $end
$var wire 1 $" D $end
$var wire 1 9 C $end
$var reg 1 %" Q $end
$upscope $end
$scope module _78_ $end
$var wire 1 &" D $end
$var wire 1 9 C $end
$var reg 1 '" Q $end
$upscope $end
$upscope $end
$scope module ptos2 $end
$var wire 1 (" _03_ $end
$var wire 1 )" _04_ $end
$var wire 1 *" _05_ $end
$var wire 1 +" _06_ $end
$var wire 1 ," _11_ $end
$var wire 1 -" _14_ $end
$var wire 1 ." _15_ $end
$var wire 1 /" _16_ $end
$var wire 1 0" _17_ $end
$var wire 1 1" _18_ $end
$var wire 1 2" _19_ $end
$var wire 1 3" _21_ $end
$var wire 1 4" _23_ $end
$var wire 1 5" _24_ $end
$var wire 1 6" _25_ $end
$var wire 1 7" _26_ $end
$var wire 1 8" _27_ $end
$var wire 1 9" _28_ $end
$var wire 1 :" _29_ $end
$var wire 1 ;" _31_ $end
$var wire 3 <" selector [2:0] $end
$var wire 1 2 reset $end
$var wire 1 R out $end
$var wire 1 0 in_valid $end
$var wire 1 =" in7 $end
$var wire 1 >" in6 $end
$var wire 1 ?" in5 $end
$var wire 1 @" in4 $end
$var wire 1 A" in3 $end
$var wire 1 B" in2 $end
$var wire 1 C" in1 $end
$var wire 1 D" in0 $end
$var wire 8 E" in [7:0] $end
$var wire 1 9 clk $end
$var wire 32 F" _30_ [31:0] $end
$var wire 1 G" _22_ $end
$var wire 7 H" _20_ [6:0] $end
$var wire 3 I" _13_ [2:0] $end
$var wire 3 J" _12_ [2:0] $end
$var wire 2 K" _10_ [1:0] $end
$var wire 3 L" _09_ [2:0] $end
$var wire 2 M" _08_ [1:0] $end
$var wire 3 N" _07_ [2:0] $end
$var wire 32 O" _02_ [31:0] $end
$var wire 3 P" _01_ [2:0] $end
$var wire 1 Q" _00_ $end
$scope module _75_ $end
$var wire 1 Q" D $end
$var wire 1 9 C $end
$var reg 1 R Q $end
$upscope $end
$scope module _76_ $end
$var wire 1 R" D $end
$var wire 1 9 C $end
$var reg 1 S" Q $end
$upscope $end
$scope module _77_ $end
$var wire 1 T" D $end
$var wire 1 9 C $end
$var reg 1 U" Q $end
$upscope $end
$scope module _78_ $end
$var wire 1 V" D $end
$var wire 1 9 C $end
$var reg 1 W" Q $end
$upscope $end
$upscope $end
$upscope $end
$scope module tester $end
$var wire 1 6 out0 $end
$var wire 1 5 out0_s $end
$var wire 1 4 out1 $end
$var wire 1 3 out1_s $end
$var reg 1 X" clk $end
$var reg 1 Y" clk16f $end
$var reg 1 Z" clk1f $end
$var reg 1 [" clk2f $end
$var reg 1 \" clk32f $end
$var reg 1 ]" clk4f $end
$var reg 1 9 clk8f $end
$var reg 8 ^" in0 [7:0] $end
$var reg 8 _" in1 [7:0] $end
$var reg 1 2 reset $end
$var reg 1 1 valid_0 $end
$var reg 1 0 valid_1 $end
$upscope $end
$upscope $end
$enddefinitions $end
#0
$dumpvars
bx _"
bx ^"
0]"
0\"
0["
0Z"
0Y"
0X"
xW"
0V"
xU"
0T"
xS"
0R"
0Q"
b0 P"
b0zxxx O"
bx N"
bx M"
bx L"
bx K"
bx J"
bx I"
bx0xxxx0 H"
xG"
b0zxx F"
bx E"
1D"
0C"
1B"
1A"
1@"
1?"
0>"
0="
bx <"
x;"
x:"
x9"
x8"
x7"
x6"
x5"
x4"
x3"
x2"
x1"
x0"
x/"
x."
x-"
x,"
x+"
x*"
x)"
x("
x'"
0&"
x%"
0$"
x#"
0""
0!"
b0 ~
b0zxxx }
bx |
bx {
bx z
bx y
bx x
bx w
bx0xxxx0 v
xu
b0zxx t
bx s
1r
0q
1p
1o
1n
1m
0l
0k
bx j
xi
xh
xg
xf
xe
xd
xc
xb
xa
x`
x_
x^
x]
x\
x[
xZ
xY
xX
xW
xV
bx U
bx T
xS
xR
bx Q
0P
0O
1N
1M
1L
1K
0J
1I
bx H
bx G
0F
0E
1D
1C
1B
1A
0@
1?
bx >
bx =
bx <
x;
x:
09
bx 8
bx 7
x6
x5
x4
x3
02
01
00
z/
z.
x-
z,
z+
x*
z)
z(
x'
z&
z%
z$
z#
z"
z!
$end
#5000
b11111111 7
b11111111 <
b11111111 H
b11111111 T
b11111111 E"
b11111111 _"
b11111111 8
b11111111 =
b11111111 >
b11111111 U
b11111111 s
b11111111 ^"
1Z"
1["
1u
1G"
1a
13"
b0 |
b0 N"
b10 {
1i
b10 M"
1;"
0g
0f
0e
b0 z
09"
08"
07"
b0 L"
1`
1_
1^
b10 y
b1000000 v
0c
0b
12"
11"
10"
b10 K"
b1000000 H"
05"
04"
1W
1V
1Y
1h
0d
1\
1[
1)"
1("
1+"
1:"
06"
1."
1-"
0Z
1]
0,"
1/"
b0z001 }
b0z00 t
0X
b11 w
b0z001 O"
b0z00 F"
0*"
b11 I"
04
06
b101 x
b101 J"
b0 G
0;
b0 Q
0:
05
0S
0#"
0%"
b0 j
0'"
03
0R
0S"
0U"
b0 <"
0W"
1]"
19
1Y"
1\"
1X"
#10000
0X"
#15000
0\"
1X"
#20000
0X"
#25000
0Y"
1\"
1X"
#30000
0X"
#35000
0\"
1X"
#40000
0X"
#45000
09
1Y"
1\"
1X"
#50000
0X"
#55000
0\"
1X"
#60000
0X"
#65000
0Y"
1\"
1X"
#70000
0X"
#75000
0\"
1X"
#80000
0X"
#85000
0]"
19
1Y"
1\"
1X"
#90000
0X"
#95000
0\"
1X"
#100000
0X"
#105000
0Y"
1\"
1X"
#110000
0X"
#115000
0\"
1X"
#120000
0X"
#125000
09
1Y"
1\"
1X"
#130000
0X"
#135000
0\"
1X"
#140000
0X"
#145000
0Y"
1\"
1X"
#150000
0X"
#155000
0\"
1X"
#160000
0X"
#165000
0["
1]"
19
1Y"
1\"
1X"
#170000
0X"
#175000
0\"
1X"
#180000
0X"
#185000
0Y"
1\"
1X"
#190000
0X"
#195000
0\"
1X"
#200000
0X"
#205000
09
1Y"
1\"
1X"
#210000
0X"
#215000
0\"
1X"
#220000
0X"
#225000
0Y"
1\"
1X"
#230000
0X"
#235000
0\"
1X"
#240000
0X"
#245000
0]"
19
1Y"
1\"
1X"
#250000
0X"
#255000
0\"
1X"
#260000
0X"
#265000
0Y"
1\"
1X"
#270000
0X"
#275000
0\"
1X"
#280000
0X"
#285000
09
1Y"
1\"
1X"
#290000
0X"
#295000
0\"
1X"
#300000
0X"
#305000
0Y"
1\"
1X"
#310000
0X"
#315000
0\"
1X"
#320000
0X"
#325000
0Z"
1["
1]"
19
1Y"
1\"
1X"
#330000
0X"
#335000
0\"
1X"
#340000
0X"
#345000
0Y"
1\"
1X"
#350000
0X"
#355000
0\"
1X"
#360000
0X"
#365000
09
1Y"
1\"
1X"
#370000
0X"
#375000
0\"
1X"
#380000
0X"
#385000
0Y"
1\"
1X"
#390000
0X"
#395000
0\"
1X"
#400000
0X"
#405000
0]"
19
1Y"
1\"
1X"
#410000
0X"
#415000
0\"
1X"
#420000
0X"
#425000
0Y"
1\"
1X"
#430000
0X"
#435000
0\"
1X"
#440000
0X"
#445000
09
1Y"
1\"
1X"
#450000
0X"
#455000
0\"
1X"
#460000
0X"
#465000
0Y"
1\"
1X"
#470000
0X"
#475000
0\"
1X"
#480000
0X"
#485000
0["
1]"
19
1Y"
1\"
1X"
#490000
0X"
#495000
0\"
1X"
#500000
0X"
#505000
0Y"
1\"
1X"
#510000
0X"
#515000
0\"
1X"
#520000
0X"
#525000
09
1Y"
1\"
1X"
#530000
0X"
#535000
0\"
1X"
#540000
0X"
#545000
0Y"
1\"
1X"
#550000
0X"
#555000
0\"
1X"
#560000
0X"
#565000
0]"
19
1Y"
1\"
1X"
#570000
0X"
#575000
0\"
1X"
#580000
0X"
#585000
0Y"
1\"
1X"
#590000
0X"
#595000
0\"
1X"
#600000
0X"
#605000
09
1Y"
1\"
1X"
#610000
0X"
#615000
0\"
1X"
#620000
0X"
#625000
0Y"
1\"
1X"
#630000
0X"
#635000
0\"
1X"
#640000
0X"
#645000
1Z"
1["
1]"
19
1Y"
1\"
1X"
#650000
0X"
#655000
0\"
1X"
#660000
0X"
#665000
0Y"
1\"
1X"
#670000
0X"
#675000
0\"
1X"
#680000
0X"
#685000
09
1Y"
1\"
1X"
#690000
0X"
#695000
0\"
1X"
#700000
0X"
#705000
0Y"
1\"
1X"
#710000
0X"
#715000
0\"
1X"
#720000
0X"
#725000
0]"
19
1Y"
1\"
1X"
#730000
0X"
#735000
0\"
1X"
#740000
0X"
#745000
0Y"
1\"
1X"
#750000
0X"
#755000
0\"
1X"
#760000
0X"
#765000
09
1Y"
1\"
1X"
#770000
0X"
#775000
0\"
1X"
#780000
0X"
#785000
0Y"
1\"
1X"
#790000
0X"
#795000
0\"
1X"
#800000
0X"
#805000
0["
1]"
19
1Y"
1\"
1X"
#810000
0X"
#815000
0\"
1X"
#820000
0X"
#825000
0Y"
1\"
1X"
#830000
0X"
#835000
0\"
1X"
#840000
0X"
#845000
09
1Y"
1\"
1X"
#850000
0X"
#855000
0\"
1X"
#860000
0X"
#865000
0Y"
1\"
1X"
#870000
0X"
#875000
0\"
1X"
#880000
0X"
#885000
0]"
19
1Y"
1\"
1X"
#890000
0X"
#895000
0\"
1X"
#900000
0X"
#905000
0Y"
1\"
1X"
#910000
0X"
#915000
0\"
1X"
#920000
0X"
#925000
09
1Y"
1\"
1X"
#930000
0X"
#935000
0\"
1X"
#940000
0X"
#945000
0Y"
1\"
1X"
#950000
0X"
#955000
0\"
1X"
#960000
0X"
#965000
0Z"
1["
1]"
19
1Y"
1\"
1X"
#970000
0X"
#975000
0\"
1X"
#980000
0X"
#985000
0Y"
1\"
1X"
#990000
0X"
#995000
0\"
1X"
#1000000
0X"
#1005000
09
1Y"
1\"
1X"
#1010000
0X"
#1015000
0\"
1X"
#1020000
0X"
#1025000
0Y"
1\"
1X"
#1030000
0X"
#1035000
0\"
1X"
#1040000
0X"
#1045000
0]"
19
1Y"
1\"
1X"
#1050000
0X"
#1055000
0\"
1X"
#1060000
0X"
#1065000
0Y"
1\"
1X"
#1070000
0X"
#1075000
0\"
1X"
#1080000
0X"
#1085000
09
1Y"
1\"
1X"
#1090000
0X"
#1095000
0\"
1X"
#1100000
0X"
#1105000
0Y"
1\"
1X"
#1110000
0X"
#1115000
0\"
1X"
#1120000
0X"
#1125000
0["
1]"
19
1Y"
1\"
1X"
#1130000
0X"
#1135000
0\"
1X"
#1140000
0X"
#1145000
0Y"
1\"
1X"
#1150000
0X"
#1155000
0\"
1X"
#1160000
0X"
#1165000
09
1Y"
1\"
1X"
#1170000
0X"
#1175000
0\"
1X"
#1180000
0X"
#1185000
0Y"
1\"
1X"
#1190000
0X"
#1195000
0\"
1X"
#1200000
0X"
#1205000
0]"
19
1Y"
1\"
1X"
#1210000
0X"
#1215000
0\"
1X"
#1220000
0X"
#1225000
0Y"
1\"
1X"
#1230000
0X"
#1235000
0\"
1X"
#1240000
0X"
#1245000
09
1Y"
1\"
1X"
#1250000
0X"
#1255000
0\"
1X"
#1260000
0X"
#1265000
0Y"
1\"
1X"
#1270000
0X"
#1275000
0\"
1X"
#1280000
0X"
#1285000
1Z"
1["
1]"
19
1Y"
1\"
1X"
#1290000
0X"
#1295000
0\"
1R"
1""
b1 P"
1Q"
b1 ~
1!"
1X"
12
#1300000
0X"
#1305000
0Y"
1\"
1X"
#1310000
0X"
#1315000
0\"
1X"
#1320000
0X"
#1325000
09
1Y"
1\"
1X"
#1330000
0X"
#1335000
0\"
1X"
#1340000
0X"
#1345000
0Y"
1\"
1X"
#1350000
0X"
#1355000
0\"
1X"
#1360000
0X"
#1365000
03"
0Q"
0a
0!"
0G"
0u
b100 L"
b0 M"
1;"
b100 z
b0 {
1i
19"
1g
1T"
0R"
02"
b0 H"
b10 K"
1$"
0""
0`
b0 v
b10 y
b10 I"
b10 P"
0)"
0:"
b10 w
b10 ~
0W
0h
b100 J"
1,"
b100 x
1Z
b0z010 O"
b0z01 F"
1*"
b0z010 }
b0z01 t
1X
14
16
0]"
b1 <"
1S"
13
1R
b1 j
1#"
15
1S
1:
b1 Q
1;
b1 G
19
1Y"
1\"
1X"
#1370000
0X"
#1375000
0\"
1X"
#1380000
0X"
#1385000
0Y"
1\"
1X"
#1390000
0X"
#1395000
0\"
1X"
#1400000
0X"
#1405000
09
1Y"
1\"
1X"
#1410000
0X"
#1415000
0\"
1X"
#1420000
0X"
#1425000
0Y"
1\"
1X"
#1430000
0X"
#1435000
0\"
1X"
#1440000
0X"
#1445000
0["
1!"
1Q"
1u
1G"
1a
13"
b10 {
b10 M"
b100 |
1i
b100 N"
1;"
b10000 v
b10 y
b10000 H"
b10 K"
1f
18"
1""
0_
b100 z
1R"
01"
b100 L"
b11 ~
0V
0g
b11 P"
0("
09"
1`
12"
b0z011 }
b0z00 t
b1 w
1W
b0z011 O"
b0z00 F"
b1 I"
1)"
04
06
b111 x
b111 J"
0;
b10 G
0:
b10 Q
05
0S
0#"
b10 j
1%"
03
0R
0S"
b10 <"
1U"
1]"
19
1Y"
1\"
1X"
#1450000
0X"
#1455000
0\"
1X"
#1460000
0X"
#1465000
0Y"
1\"
1X"
#1470000
0X"
#1475000
0\"
1X"
#1480000
0X"
#1485000
09
1Y"
1\"
1X"
#1490000
0X"
#1495000
0\"
1X"
#1500000
0X"
#1505000
0Y"
1\"
1X"
#1510000
0X"
#1515000
0\"
1X"
#1520000
0X"
#1525000
13"
1Q"
1a
1!"
1G"
1u
b1 M"
1;"
b1 {
1i
1V"
b10 N"
b1 K"
1&"
b10 |
b1 y
17"
1e
0T"
0R"
00"
b1000 H"
b10 L"
0$"
0""
0^
b1000 v
b10 z
b0 I"
b100 P"
0+"
08"
b0 w
b100 ~
0Y
0f
b110 J"
11"
b110 x
1_
b0z100 O"
b0z11 F"
1("
b0z100 }
b0z11 t
1V
14
16
0]"
b11 <"
1S"
13
1R
b11 j
1#"
15
1S
1:
b11 Q
1;
b11 G
19
1Y"
1\"
1X"
#1530000
0X"
#1535000
0\"
1X"
#1540000
0X"
#1545000
0Y"
1\"
1X"
#1550000
0X"
#1555000
0\"
1X"
#1560000
0X"
#1565000
09
1Y"
1\"
1X"
#1570000
0X"
#1575000
0\"
1X"
#1580000
0X"
#1585000
0Y"
1\"
1X"
#1590000
0X"
#1595000
0\"
1X"
#1600000
0X"
#1605000
0Z"
1["
1a
1!"
13"
1Q"
1u
1G"
b1 {
1i
b1 M"
1;"
b10 |
b1 y
b10 N"
b1 K"
1""
1&"
1R"
1V"
0b
1Y
1d
0c
b101 ~
b100 v
b10 z
04"
1+"
16"
05"
b101 P"
b100 H"
b10 L"
1[
0]
1\
0e
1-"
0/"
1."
07"
1V
b0z00 t
0X
1W
b0z101 }
b111 w
1^
1("
b0z00 F"
0*"
1)"
b0z101 O"
b111 I"
10"
b1 x
b1 J"
b100 G
b100 Q
0#"
0%"
b100 j
1'"
0S"
0U"
b100 <"
1W"
1]"
19
1Y"
1\"
1X"
#1610000
0X"
#1615000
0\"
1X"
#1620000
0X"
#1625000
0Y"
1\"
1X"
#1630000
0X"
#1635000
0\"
1X"
#1640000
0X"
#1645000
09
1Y"
1\"
1X"
#1650000
0X"
#1655000
0\"
1X"
#1660000
0X"
#1665000
0Y"
1\"
1X"
#1670000
0X"
#1675000
0\"
1X"
#1680000
0X"
#1685000
13"
1Q"
1a
1!"
1G"
1u
b1 M"
1;"
b1 {
1i
b1 N"
b1 K"
b1 |
b1 y
15"
1c
1T"
0R"
0."
b10 H"
b1 L"
1$"
0""
0\
b10 v
b1 z
b110 I"
b110 P"
0)"
06"
b110 w
b110 ~
0W
0d
b0 J"
1/"
b0 x
1]
b0z110 O"
b0z01 F"
1*"
b0z110 }
b0z01 t
1X
0]"
b101 <"
1S"
b101 j
1#"
b101 Q
b101 G
19
1Y"
1\"
1X"
#1690000
0X"
#1695000
0\"
1X"
#1700000
0X"
#1705000
0Y"
1\"
1X"
#1710000
0X"
#1715000
0\"
1X"
#1720000
0X"
#1725000
09
1Y"
1\"
1X"
#1730000
0X"
#1735000
0\"
1X"
#1740000
0X"
#1745000
0Y"
1\"
1X"
#1750000
0X"
#1755000
0\"
1X"
#1760000
0X"
#1765000
0["
0a
0!"
03"
0Q"
0u
0G"
b0 {
1i
b0 M"
1;"
b0 |
b1 y
b0 N"
b1 K"
1b
14"
1""
0[
b0 v
b1 z
1R"
0-"
b0 H"
b1 L"
b111 ~
0V
0c
b111 P"
0("
05"
1\
1."
b0z111 }
b0z00 t
b101 w
1W
b0z111 O"
b0z00 F"
b101 I"
1)"
b11 x
b11 J"
b110 G
b110 Q
0#"
b110 j
1%"
0S"
b110 <"
1U"
1]"
19
1Y"
1\"
1X"
#1770000
0X"
#1775000
0\"
1X"
#1780000
0X"
#1785000
0Y"
1\"
1X"
#1790000
0X"
#1795000
0\"
1X"
#1800000
0X"
#1805000
09
1Y"
1\"
1X"
#1810000
0X"
#1815000
0\"
1X"
#1820000
0X"
#1825000
0Y"
1\"
1X"
#1830000
0X"
#1835000
0\"
1X"
#1840000
0X"
#1845000
0;"
0i
0V"
b0 K"
0&"
b0 y
0T"
0R"
b0 L"
0$"
0""
b0 z
b100 I"
b0 P"
0+"
04"
b100 w
b0 ~
0Y
0b
b10 J"
1-"
b10 x
1[
b0z000 O"
b0z11 F"
1("
b0z000 }
b0z11 t
1V
04
06
0]"
b111 <"
1S"
03
0R
b111 j
1#"
05
0S
0:
b111 Q
0;
b111 G
19
1Y"
1\"
1X"
#1850000
0X"
#1855000
0\"
1X"
#1860000
0X"
#1865000
0Y"
1\"
1X"
#1870000
0X"
#1875000
0\"
1X"
#1880000
0X"
#1885000
09
1Y"
1\"
1X"
#1890000
0X"
#1895000
0\"
1X"
#1900000
0X"
#1905000
0Y"
1\"
1X"
#1910000
0X"
#1915000
0\"
1X"
#1920000
0X"
#1925000
1Z"
1["
1!"
1Q"
1u
1G"
1a
13"
b10 {
1i
b10 M"
1;"
b0 |
b0 N"
1""
b10 y
0&"
1R"
b10 K"
0V"
0f
1Y
1h
0g
b1 ~
b1000000 v
b0 z
08"
1+"
1:"
09"
b1 P"
b1000000 H"
b0 L"
1_
0Z
1`
0e
11"
0,"
12"
07"
1V
b0z00 t
0X
1W
b0z001 }
b11 w
1^
1("
b0z00 F"
0*"
1)"
b0z001 O"
b11 I"
10"
b101 x
b101 J"
b0 G
b0 Q
0#"
0%"
b0 j
0'"
0S"
0U"
b0 <"
0W"
1]"
19
1Y"
1\"
1X"
#1930000
0X"
#1935000
0\"
1X"
#1940000
0X"
#1945000
0Y"
1\"
1X"
#1950000
0X"
#1955000
0\"
1X"
#1960000
0X"
#1965000
09
1Y"
1\"
1X"
#1970000
0X"
#1975000
0\"
1X"
#1980000
0X"
#1985000
0Y"
1\"
1X"
#1990000
0X"
#1995000
0\"
1X"
#2000000
0X"
#2005000
03"
0Q"
0a
0!"
0G"
0u
b100 L"
b0 M"
1;"
b100 z
b0 {
1i
19"
1g
1T"
0R"
02"
b0 H"
b10 K"
1$"
0""
0`
b0 v
b10 y
b10 I"
b10 P"
0)"
0:"
b10 w
b10 ~
0W
0h
b100 J"
1,"
b100 x
1Z
b0z010 O"
b0z01 F"
1*"
b0z010 }
b0z01 t
1X
14
16
0]"
b1 <"
1S"
13
1R
b1 j
1#"
15
1S
1:
b1 Q
1;
b1 G
19
1Y"
1\"
1X"
#2010000
0X"
#2015000
0\"
1X"
#2020000
0X"
#2025000
0Y"
1\"
1X"
#2030000
0X"
#2035000
0\"
1X"
#2040000
0X"
#2045000
09
1Y"
1\"
1X"
#2050000
0X"
#2055000
0\"
1X"
#2060000
0X"
#2065000
0Y"
1\"
1X"
#2070000
0X"
#2075000
0\"
1X"
#2080000
0X"
#2085000
0["
1!"
1Q"
1u
1G"
1a
13"
b10 {
b10 M"
b100 |
1i
b100 N"
1;"
b10000 v
b10 y
b10000 H"
b10 K"
1f
18"
1""
0_
b100 z
1R"
01"
b100 L"
b11 ~
0V
0g
b11 P"
0("
09"
1`
12"
b0z011 }
b0z00 t
b1 w
1W
b0z011 O"
b0z00 F"
b1 I"
1)"
04
06
b111 x
b111 J"
0;
b10 G
0:
b10 Q
05
0S
0#"
b10 j
1%"
03
0R
0S"
b10 <"
1U"
1]"
19
1Y"
1\"
1X"
#2090000
0X"
#2095000
0\"
1X"
#2100000
0X"
#2105000
0Y"
1\"
1X"
#2110000
0X"
#2115000
0\"
1X"
#2120000
0X"
#2125000
09
1Y"
1\"
1X"
#2130000
0X"
#2135000
0\"
1X"
#2140000
0X"
#2145000
0Y"
1\"
1X"
#2150000
0X"
#2155000
0\"
1X"
#2160000
0X"
#2165000
13"
1Q"
1a
1!"
1G"
1u
b1 M"
1;"
b1 {
1i
1V"
b10 N"
b1 K"
1&"
b10 |
b1 y
17"
1e
0T"
0R"
00"
b1000 H"
b10 L"
0$"
0""
0^
b1000 v
b10 z
b0 I"
b100 P"
0+"
08"
b0 w
b100 ~
0Y
0f
b110 J"
11"
b110 x
1_
b0z100 O"
b0z11 F"
1("
b0z100 }
b0z11 t
1V
14
16
0]"
b11 <"
1S"
13
1R
b11 j
1#"
15
1S
1:
b11 Q
1;
b11 G
19
1Y"
1\"
1X"
#2170000
0X"
#2175000
0\"
1X"
#2180000
0X"
#2185000
0Y"
1\"
1X"
#2190000
0X"
#2195000
0\"
1X"
#2200000
0X"
#2205000
09
1Y"
1\"
1X"
#2210000
0X"
#2215000
0\"
1X"
#2220000
0X"
#2225000
0Y"
1\"
1X"
#2230000
0X"
#2235000
0\"
1X"
#2240000
0X"
#2245000
0Z"
1["
1a
1!"
13"
1Q"
1u
1G"
b1 {
1i
b1 M"
1;"
b10 |
b1 y
b10 N"
b1 K"
1""
1&"
1R"
1V"
0b
1Y
1d
0c
b101 ~
b100 v
b10 z
04"
1+"
16"
05"
b101 P"
b100 H"
b10 L"
1[
0]
1\
0e
1-"
0/"
1."
07"
1V
b0z00 t
0X
1W
b0z101 }
b111 w
1^
1("
b0z00 F"
0*"
1)"
b0z101 O"
b111 I"
10"
b1 x
b1 J"
b100 G
b100 Q
0#"
0%"
b100 j
1'"
0S"
0U"
b100 <"
1W"
1]"
19
1Y"
1\"
1X"
#2250000
0X"
#2255000
0\"
1X"
#2260000
0X"
#2265000
0Y"
1\"
1X"
#2270000
0X"
#2275000
0\"
1X"
#2280000
0X"
#2285000
09
1Y"
1\"
1X"
#2290000
0X"
#2295000
0\"
1X"
#2300000
0X"
#2305000
0Y"
1\"
1X"
#2310000
0X"
#2315000
0\"
1X"
#2320000
0X"
#2325000
13"
1Q"
1a
1!"
1G"
1u
b1 M"
1;"
b1 {
1i
b1 N"
b1 K"
b1 |
b1 y
15"
1c
1T"
0R"
0."
b10 H"
b1 L"
1$"
0""
0\
b10 v
b1 z
b110 I"
b110 P"
0)"
06"
b110 w
b110 ~
0W
0d
b0 J"
1/"
b0 x
1]
b0z110 O"
b0z01 F"
1*"
b0z110 }
b0z01 t
1X
0]"
b101 <"
1S"
b101 j
1#"
b101 Q
b101 G
19
1Y"
1\"
1X"
#2330000
0X"
#2335000
0\"
1X"
#2340000
0X"
#2345000
0Y"
1\"
1X"
#2350000
0X"
#2355000
0\"
1X"
#2360000
0X"
#2365000
09
1Y"
1\"
1X"
#2370000
0X"
#2375000
0\"
1X"
#2380000
0X"
#2385000
0Y"
1\"
1X"
#2390000
0X"
#2395000
0\"
1X"
#2400000
0X"
#2405000
0["
0a
0!"
03"
0Q"
0u
0G"
b0 {
1i
b0 M"
1;"
b0 |
b1 y
b0 N"
b1 K"
1b
14"
1""
0[
b0 v
b1 z
1R"
0-"
b0 H"
b1 L"
b111 ~
0V
0c
b111 P"
0("
05"
1\
1."
b0z111 }
b0z00 t
b101 w
1W
b0z111 O"
b0z00 F"
b101 I"
1)"
b11 x
b11 J"
b110 G
b110 Q
0#"
b110 j
1%"
0S"
b110 <"
1U"
1]"
19
1Y"
1\"
1X"
#2410000
0X"
#2415000
0\"
1X"
#2420000
0X"
#2425000
0Y"
1\"
1X"
#2430000
0X"
#2435000
0\"
1X"
#2440000
0X"
#2445000
09
1Y"
1\"
1X"
#2450000
0X"
#2455000
0\"
1X"
#2460000
0X"
#2465000
0Y"
1\"
1X"
#2470000
0X"
#2475000
0\"
1X"
#2480000
0X"
#2485000
0;"
0i
0V"
b0 K"
0&"
b0 y
0T"
0R"
b0 L"
0$"
0""
b0 z
b100 I"
b0 P"
0+"
04"
b100 w
b0 ~
0Y
0b
b10 J"
1-"
b10 x
1[
b0z000 O"
b0z11 F"
1("
b0z000 }
b0z11 t
1V
04
06
0]"
b111 <"
1S"
03
0R
b111 j
1#"
05
0S
0:
b111 Q
0;
b111 G
19
1Y"
1\"
1X"
#2490000
0X"
#2495000
0\"
1X"
#2500000
0X"
#2505000
0Y"
1\"
1X"
#2510000
0X"
#2515000
0\"
1X"
#2520000
0X"
#2525000
09
1Y"
1\"
1X"
#2530000
0X"
#2535000
0\"
1X"
#2540000
0X"
#2545000
0Y"
1\"
1X"
#2550000
0X"
#2555000
0\"
1X"
#2560000
0X"
