ptos.vcd
$date
	Tue Jun 23 23:11:22 2020
$end
$version
	Icarus Verilog
$end
$timescale
	1ps
$end
$scope module BUF $end
$var wire 1 ! A $end
$var wire 1 " Y $end
$upscope $end
$scope module DFFSR $end
$var wire 1 # C $end
$var wire 1 $ D $end
$var wire 1 % R $end
$var wire 1 & S $end
$var reg 1 ' Q $end
$upscope $end
$scope module NAND $end
$var wire 1 ( A $end
$var wire 1 ) B $end
$var wire 1 * Y $end
$upscope $end
$scope module NOR $end
$var wire 1 + A $end
$var wire 1 , B $end
$var wire 1 - Y $end
$upscope $end
$scope module NOT $end
$var wire 1 . A $end
$var wire 1 / Y $end
$upscope $end
$scope module testbench_ptos $end
$var wire 1 0 reset $end
$var wire 1 1 outs $end
$var wire 1 2 outc $end
$var wire 1 3 in_valid $end
$var wire 8 4 in [7:0] $end
$var wire 1 5 clk4f $end
$var wire 1 6 clk32f $end
$scope module paralelo_a_serialtb_b $end
$var wire 1 0 reset $end
$var wire 1 3 in_valid $end
$var wire 8 7 in [7:0] $end
$var wire 1 6 clk $end
$var reg 1 8 in0 $end
$var reg 1 9 in1 $end
$var reg 1 : in2 $end
$var reg 1 ; in3 $end
$var reg 1 < in4 $end
$var reg 1 = in5 $end
$var reg 1 > in6 $end
$var reg 1 ? in7 $end
$var reg 1 2 out $end
$var reg 3 @ selector [2:0] $end
$upscope $end
$scope module paralelo_a_serialtb_s $end
$var wire 1 A _03_ $end
$var wire 1 B _04_ $end
$var wire 1 C _05_ $end
$var wire 1 D _06_ $end
$var wire 1 E _11_ $end
$var wire 1 F _14_ $end
$var wire 1 G _15_ $end
$var wire 1 H _16_ $end
$var wire 1 I _17_ $end
$var wire 1 J _18_ $end
$var wire 1 K _19_ $end
$var wire 1 L _21_ $end
$var wire 1 M _23_ $end
$var wire 1 N _24_ $end
$var wire 1 O _25_ $end
$var wire 1 P _26_ $end
$var wire 1 Q _27_ $end
$var wire 1 R _28_ $end
$var wire 1 S _29_ $end
$var wire 1 T _31_ $end
$var wire 3 U selector [2:0] $end
$var wire 1 0 reset $end
$var wire 1 1 out $end
$var wire 1 3 in_valid $end
$var wire 1 V in7 $end
$var wire 1 W in6 $end
$var wire 1 X in5 $end
$var wire 1 Y in4 $end
$var wire 1 Z in3 $end
$var wire 1 [ in2 $end
$var wire 1 \ in1 $end
$var wire 1 ] in0 $end
$var wire 8 ^ in [7:0] $end
$var wire 1 6 clk $end
$var wire 32 _ _30_ [31:0] $end
$var wire 1 ` _22_ $end
$var wire 7 a _20_ [6:0] $end
$var wire 3 b _13_ [2:0] $end
$var wire 3 c _12_ [2:0] $end
$var wire 2 d _10_ [1:0] $end
$var wire 3 e _09_ [2:0] $end
$var wire 2 f _08_ [1:0] $end
$var wire 3 g _07_ [2:0] $end
$var wire 32 h _02_ [31:0] $end
$var wire 3 i _01_ [2:0] $end
$var wire 1 j _00_ $end
$scope module _75_ $end
$var wire 1 j D $end
$var wire 1 6 C $end
$var reg 1 1 Q $end
$upscope $end
$scope module _76_ $end
$var wire 1 k D $end
$var wire 1 6 C $end
$var reg 1 l Q $end
$upscope $end
$scope module _77_ $end
$var wire 1 m D $end
$var wire 1 6 C $end
$var reg 1 n Q $end
$upscope $end
$scope module _78_ $end
$var wire 1 o D $end
$var wire 1 6 C $end
$var reg 1 p Q $end
$upscope $end
$upscope $end
$scope module t_ptostb $end
$var wire 1 2 outc $end
$var wire 1 1 outs $end
$var reg 1 q clk $end
$var reg 1 r clk16f $end
$var reg 1 6 clk32f $end
$var reg 1 5 clk4f $end
$var reg 1 s clk8f $end
$var reg 8 t in [7:0] $end
$var reg 1 3 in_valid $end
$var reg 1 0 reset $end
$upscope $end
$upscope $end
$enddefinitions $end
#0
$dumpvars
bx t
0s
0r
0q
xp
0o
xn
0m
xl
0k
0j
b0 i
b0zxxx h
bx g
bx f
bx e
bx d
bx c
bx b
bx0xxxx0 a
x`
b0zxx _
bx ^
1]
0\
1[
1Z
1Y
1X
0W
0V
bx U
xT
xS
xR
xQ
xP
xO
xN
xM
xL
xK
xJ
xI
xH
xG
xF
xE
xD
xC
xB
xA
bx @
0?
0>
1=
1<
1;
1:
09
18
bx 7
06
05
bx 4
03
x2
x1
00
z/
z.
x-
z,
z+
x*
z)
z(
x'
z&
z%
z$
z#
z"
z!
$end
#5000
b11111111 4
b11111111 7
b11111111 ^
b11111111 t
15
1s
1`
1L
b0 g
b10 f
1T
0R
0Q
0P
b0 e
1K
1J
1I
b10 d
b1000000 a
0N
0M
1B
1A
1D
1S
0O
1G
1F
0E
1H
b0z001 h
b0z00 _
0C
b11 b
b101 c
b0 @
02
01
0l
0n
b0 U
0p
1r
16
1q
#10000
0q
#15000
06
1q
#20000
0q
#25000
0r
16
1q
#30000
0q
#35000
06
1q
#40000
0q
#45000
0s
1r
16
1q
#50000
0q
#55000
06
1q
#60000
0q
#65000
0r
16
1q
#70000
0q
#75000
06
1q
#80000
0q
#85000
05
1s
1r
16
1q
#90000
0q
#95000
06
1q
#100000
0q
#105000
0r
16
1q
#110000
0q
#115000
06
1q
#120000
0q
#125000
0s
1r
16
1q
#130000
0q
#135000
06
1q
#140000
0q
#145000
0r
16
1q
#150000
0q
#155000
06
1q
#160000
0q
#165000
15
1s
1r
16
1q
#170000
0q
#175000
06
1q
#180000
0q
#185000
0r
16
1q
#190000
0q
#195000
06
1q
#200000
0q
#205000
0s
1r
16
1q
#210000
0q
#215000
06
1q
#220000
0q
#225000
0r
16
1q
#230000
0q
#235000
06
1q
#240000
0q
#245000
05
1s
1r
16
1q
#250000
0q
#255000
06
1q
#260000
0q
#265000
0r
16
1q
#270000
0q
#275000
06
1q
#280000
0q
#285000
0s
1r
16
1q
#290000
0q
#295000
06
1q
#300000
0q
#305000
0r
16
1q
#310000
0q
#315000
06
1q
#320000
0q
#325000
15
1s
1r
16
1q
#330000
0q
#335000
06
1q
#340000
0q
#345000
0r
16
1q
#350000
0q
#355000
06
1q
#360000
0q
#365000
0s
1r
16
1q
#370000
0q
#375000
06
1q
#380000
0q
#385000
0r
16
1q
#390000
0q
#395000
06
1q
#400000
0q
#405000
05
1s
1r
16
1q
#410000
0q
#415000
06
1q
#420000
0q
#425000
0r
16
1q
#430000
0q
#435000
06
1q
#440000
0q
#445000
0s
1r
16
1q
#450000
0q
#455000
06
1q
#460000
0q
#465000
0r
16
1q
#470000
0q
#475000
06
1q
#480000
0q
#485000
15
1s
1r
16
1q
#490000
0q
#495000
06
1q
#500000
0q
#505000
0r
16
1q
#510000
0q
#515000
06
1q
#520000
0q
#525000
0s
1r
16
1q
#530000
0q
#535000
06
1q
#540000
0q
#545000
0r
16
1q
#550000
0q
#555000
06
1q
#560000
0q
#565000
05
1s
1r
16
1q
#570000
0q
#575000
06
1q
#580000
0q
#585000
0r
16
1q
#590000
0q
#595000
06
1q
#600000
0q
#605000
0s
1r
16
1q
#610000
0q
#615000
06
1q
#620000
0q
#625000
0r
16
1q
#630000
0q
#635000
06
1q
#640000
0q
#645000
15
1s
1r
16
1q
#650000
0q
#655000
06
1q
#660000
0q
#665000
0r
16
1q
#670000
0q
#675000
06
1q
#680000
0q
#685000
0s
1r
16
1q
#690000
0q
#695000
06
1q
#700000
0q
#705000
0r
16
1q
#710000
0q
#715000
06
1q
#720000
0q
#725000
05
1s
1r
16
1q
#730000
0q
#735000
06
1q
#740000
0q
#745000
0r
16
1q
#750000
0q
#755000
06
1q
#760000
0q
#765000
0s
1r
16
1q
#770000
0q
#775000
06
1q
#780000
0q
#785000
0r
16
1q
#790000
0q
#795000
06
1q
#800000
0q
#805000
15
1s
1r
16
1q
#810000
0q
#815000
06
1k
b1 i
1j
1q
10
#820000
0q
#825000
0L
0j
0`
b100 e
b0 f
1T
1R
1m
0k
0K
b0 a
b10 d
b10 b
b10 i
0B
0S
b100 c
1E
b0z010 h
b0z01 _
1C
0r
b1 U
1l
11
12
b1 @
16
1q
#830000
0q
#835000
06
1q
#840000
0q
#845000
0s
1j
1`
1L
b10 f
b100 g
1T
b10000 a
b10 d
1Q
1k
0J
b100 e
b11 i
0A
0R
1K
b0z011 h
b0z00 _
b1 b
1B
b111 c
02
b10 @
01
0l
b10 U
1n
1r
16
1q
#850000
0q
#855000
06
1q
#860000
0q
#865000
1L
1j
1`
b1 f
1T
1o
b10 g
b1 d
1P
0m
0k
0I
b1000 a
b10 e
b0 b
b100 i
0D
0Q
b110 c
1J
b0z100 h
b0z11 _
1A
0r
b11 U
1l
11
12
b11 @
16
1q
#870000
0q
#875000
06
1q
#880000
0q
#885000
05
1s
1L
1j
1`
b1 f
1T
b10 g
b1 d
1k
1o
0M
1D
1O
0N
b101 i
b100 a
b10 e
1F
0H
1G
0P
1A
b0z00 _
0C
1B
b0z101 h
b111 b
1I
b1 c
b100 @
0l
0n
b100 U
1p
1r
16
1q
#890000
0q
#895000
06
1q
#900000
0q
#905000
1L
1j
1`
b1 f
1T
b1 g
b1 d
1N
1m
0k
0G
b10 a
b1 e
b110 b
b110 i
0B
0O
b0 c
1H
b0z110 h
b0z01 _
1C
0r
b101 U
1l
b101 @
16
1q
#910000
0q
#915000
06
1q
#920000
0q
#925000
0s
0L
0j
0`
b0 f
1T
b0 g
b1 d
1M
1k
0F
b0 a
b1 e
b111 i
0A
0N
1G
b0z111 h
b0z00 _
b101 b
1B
b11 c
b110 @
0l
b110 U
1n
1r
16
1q
#930000
0q
#935000
06
1q
#940000
0q
#945000
0T
0o
b0 d
0m
0k
b0 e
b100 b
b0 i
0D
0M
b10 c
1F
b0z000 h
b0z11 _
1A
0r
b111 U
1l
01
02
b111 @
16
1q
#950000
0q
#955000
06
1q
#960000
0q
#965000
15
1s
1j
1`
1L
b10 f
1T
b0 g
1k
b10 d
0o
0Q
1D
1S
0R
b1 i
b1000000 a
b0 e
1J
0E
1K
0P
1A
b0z00 _
0C
1B
b0z001 h
b11 b
1I
b101 c
b0 @
0l
0n
b0 U
0p
1r
16
1q
#970000
0q
#975000
06
1q
#980000
0q
#985000
0L
0j
0`
b100 e
b0 f
1T
1R
1m
0k
0K
b0 a
b10 d
b10 b
b10 i
0B
0S
b100 c
1E
b0z010 h
b0z01 _
1C
0r
b1 U
1l
11
12
b1 @
16
1q
#990000
0q
#995000
06
1q
#1000000
0q
#1005000
0s
1j
1`
1L
b10 f
b100 g
1T
b10000 a
b10 d
1Q
1k
0J
b100 e
b11 i
0A
0R
1K
b0z011 h
b0z00 _
b1 b
1B
b111 c
02
b10 @
01
0l
b10 U
1n
1r
16
1q
#1010000
0q
#1015000
06
1q
#1020000
0q
#1025000
1L
1j
1`
b1 f
1T
1o
b10 g
b1 d
1P
0m
0k
0I
b1000 a
b10 e
b0 b
b100 i
0D
0Q
b110 c
1J
b0z100 h
b0z11 _
1A
0r
b11 U
1l
11
12
b11 @
16
1q
#1030000
0q
#1035000
06
1q
#1040000
0q
#1045000
05
1s
1L
1j
1`
b1 f
1T
b10 g
b1 d
1k
1o
0M
1D
1O
0N
b101 i
b100 a
b10 e
1F
0H
1G
0P
1A
b0z00 _
0C
1B
b0z101 h
b111 b
1I
b1 c
b100 @
0l
0n
b100 U
1p
1r
16
1q
#1050000
0q
#1055000
06
1q
#1060000
0q
#1065000
1L
1j
1`
b1 f
1T
b1 g
b1 d
1N
1m
0k
0G
b10 a
b1 e
b110 b
b110 i
0B
0O
b0 c
1H
b0z110 h
b0z01 _
1C
0r
b101 U
1l
b101 @
16
1q
#1070000
0q
#1075000
06
1q
#1080000
0q
#1085000
0s
0L
0j
0`
b0 f
1T
b0 g
b1 d
1M
1k
0F
b0 a
b1 e
b111 i
0A
0N
1G
b0z111 h
b0z00 _
b101 b
1B
b11 c
b110 @
0l
b110 U
1n
1r
16
1q
#1090000
0q
#1095000
06
1q
#1100000
0q
#1105000
0T
0o
b0 d
0m
0k
b0 e
b100 b
b0 i
0D
0M
b10 c
1F
b0z000 h
b0z11 _
1A
0r
b111 U
1l
01
02
b111 @
16
1q
#1110000
0q
#1115000
06
1q
#1120000
0q
#1125000
15
1s
1j
1`
1L
b10 f
1T
b0 g
1k
b10 d
0o
0Q
1D
1S
0R
b1 i
b1000000 a
b0 e
1J
0E
1K
0P
1A
b0z00 _
0C
1B
b0z001 h
b11 b
1I
b101 c
b0 @
0l
0n
b0 U
0p
1r
16
1q
#1130000
0q
#1135000
06
1q
#1140000
0q
#1145000
0L
0j
0`
b100 e
b0 f
1T
1R
1m
0k
0K
b0 a
b10 d
b10 b
b10 i
0B
0S
b100 c
1E
b0z010 h
b0z01 _
1C
0r
b1 U
1l
11
12
b1 @
16
1q
#1150000
0q
#1155000
06
1q
#1160000
0q
#1165000
0s
1j
1`
1L
b10 f
b100 g
1T
b10000 a
b10 d
1Q
1k
0J
b100 e
b11 i
0A
0R
1K
b0z011 h
b0z00 _
b1 b
1B
b111 c
02
b10 @
01
0l
b10 U
1n
1r
16
1q
#1170000
0q
#1175000
06
1q
#1180000
0q
#1185000
1L
1j
1`
b1 f
1T
1o
b10 g
b1 d
1P
0m
0k
0I
b1000 a
b10 e
b0 b
b100 i
0D
0Q
b110 c
1J
b0z100 h
b0z11 _
1A
0r
b11 U
1l
11
12
b11 @
16
1q
#1190000
0q
#1195000
06
1q
#1200000
0q
#1205000
05
1s
1L
1j
1`
b1 f
1T
b10 g
b1 d
1k
1o
0M
1D
1O
0N
b101 i
b100 a
b10 e
1F
0H
1G
0P
1A
b0z00 _
0C
1B
b0z101 h
b111 b
1I
b1 c
b100 @
0l
0n
b100 U
1p
1r
16
1q
#1210000
0q
#1215000
06
1q
#1220000
0q
#1225000
1L
1j
1`
b1 f
1T
b1 g
b1 d
1N
1m
0k
0G
b10 a
b1 e
b110 b
b110 i
0B
0O
b0 c
1H
b0z110 h
b0z01 _
1C
0r
b101 U
1l
b101 @
16
1q
#1230000
0q
#1235000
06
1q
#1240000
0q
#1245000
0s
0L
0j
0`
b0 f
1T
b0 g
b1 d
1M
1k
0F
b0 a
b1 e
b111 i
0A
0N
1G
b0z111 h
b0z00 _
b101 b
1B
b11 c
b110 @
0l
b110 U
1n
1r
16
1q
#1250000
0q
#1255000
06
1q
#1260000
0q
#1265000
0T
0o
b0 d
0m
0k
b0 e
b100 b
b0 i
0D
0M
b10 c
1F
b0z000 h
b0z11 _
1A
0r
b111 U
1l
01
02
b111 @
16
1q
#1270000
0q
#1275000
06
1q
#1280000
0q
#1285000
15
1s
1j
1`
1L
b10 f
1T
b0 g
1k
b10 d
0o
0Q
1D
1S
0R
b1 i
b1000000 a
b0 e
1J
0E
1K
0P
1A
b0z00 _
0C
1B
b0z001 h
b11 b
1I
b101 c
b0 @
0l
0n
b0 U
0p
1r
16
1q
#1290000
0q
#1295000
06
1q
#1300000
0q
#1305000
0L
0j
0`
b100 e
b0 f
1T
1R
1m
0k
0K
b0 a
b10 d
b10 b
b10 i
0B
0S
b100 c
1E
b0z010 h
b0z01 _
1C
0r
b1 U
1l
11
12
b1 @
16
1q
#1310000
0q
#1315000
06
1q
#1320000
0q
#1325000
0s
1j
1`
1L
b10 f
b100 g
1T
b10000 a
b10 d
1Q
1k
0J
b100 e
b11 i
0A
0R
1K
b0z011 h
b0z00 _
b1 b
1B
b111 c
02
b10 @
01
0l
b10 U
1n
1r
16
1q
#1330000
0q
#1335000
06
1q
#1340000
0q
#1345000
1L
1j
1`
b1 f
1T
1o
b10 g
b1 d
1P
0m
0k
0I
b1000 a
b10 e
b0 b
b100 i
0D
0Q
b110 c
1J
b0z100 h
b0z11 _
1A
0r
b11 U
1l
11
12
b11 @
16
1q
#1350000
0q
#1355000
06
1q
#1360000
0q
#1365000
05
1s
1L
1j
1`
b1 f
1T
b10 g
b1 d
1k
1o
0M
1D
1O
0N
b101 i
b100 a
b10 e
1F
0H
1G
0P
1A
b0z00 _
0C
1B
b0z101 h
b111 b
1I
b1 c
b100 @
0l
0n
b100 U
1p
1r
16
1q
#1370000
0q
#1375000
06
1q
#1380000
0q
#1385000
1L
1j
1`
b1 f
1T
b1 g
b1 d
1N
1m
0k
0G
b10 a
b1 e
b110 b
b110 i
0B
0O
b0 c
1H
b0z110 h
b0z01 _
1C
0r
b101 U
1l
b101 @
16
1q
#1390000
0q
#1395000
06
1q
#1400000
0q
#1405000
0s
0L
0j
0`
b0 f
1T
b0 g
b1 d
1M
1k
0F
b0 a
b1 e
b111 i
0A
0N
1G
b0z111 h
b0z00 _
b101 b
1B
b11 c
b110 @
0l
b110 U
1n
1r
16
1q
#1410000
0q
#1415000
06
1q
#1420000
0q
#1425000
0T
0o
b0 d
0m
0k
b0 e
b100 b
b0 i
0D
0M
b10 c
1F
b0z000 h
b0z11 _
1A
0r
b111 U
1l
01
02
b111 @
16
1q
#1430000
0q
#1435000
06
1q
#1440000
0q
#1445000
15
1s
1j
1`
1L
b10 f
1T
b0 g
1k
b10 d
0o
0Q
1D
1S
0R
b1 i
b1000000 a
b0 e
1J
0E
1K
0P
1A
b0z00 _
0C
1B
b0z001 h
b11 b
1I
b101 c
b0 @
0l
0n
b0 U
0p
1r
16
1q
#1450000
0q
#1455000
06
1q
#1460000
0q
#1465000
0L
0j
0`
b100 e
b0 f
1T
1R
1m
0k
0K
b0 a
b10 d
b10 b
b10 i
0B
0S
b100 c
1E
b0z010 h
b0z01 _
1C
0r
b1 U
1l
11
12
b1 @
16
1q
#1470000
0q
#1475000
06
1q
#1480000
0q
#1485000
0s
1j
1`
1L
b10 f
b100 g
1T
b10000 a
b10 d
1Q
1k
0J
b100 e
b11 i
0A
0R
1K
b0z011 h
b0z00 _
b1 b
1B
b111 c
02
b10 @
01
0l
b10 U
1n
1r
16
1q
#1490000
0q
#1495000
06
1q
#1500000
0q
#1505000
1L
1j
1`
b1 f
1T
1o
b10 g
b1 d
1P
0m
0k
0I
b1000 a
b10 e
b0 b
b100 i
0D
0Q
b110 c
1J
b0z100 h
b0z11 _
1A
0r
b11 U
1l
11
12
b11 @
16
1q
#1510000
0q
#1515000
06
1q
#1520000
0q
#1525000
05
1s
1L
1j
1`
b1 f
1T
b10 g
b1 d
1k
1o
0M
1D
1O
0N
b101 i
b100 a
b10 e
1F
0H
1G
0P
1A
b0z00 _
0C
1B
b0z101 h
b111 b
1I
b1 c
b100 @
0l
0n
b100 U
1p
1r
16
1q
#1530000
0q
#1535000
06
1q
#1540000
0q
#1545000
1L
1j
1`
b1 f
1T
b1 g
b1 d
1N
1m
0k
0G
b10 a
b1 e
b110 b
b110 i
0B
0O
b0 c
1H
b0z110 h
b0z01 _
1C
0r
b101 U
1l
b101 @
16
1q
#1550000
0q
#1555000
06
1q
#1560000
0q
#1565000
0s
0L
0j
0`
b0 f
1T
b0 g
b1 d
1M
1k
0F
b0 a
b1 e
b111 i
0A
0N
1G
b0z111 h
b0z00 _
b101 b
1B
b11 c
b110 @
0l
b110 U
1n
1r
16
1q
#1570000
0q
#1575000
06
1q
#1580000
0q
#1585000
0T
0o
b0 d
0m
0k
b0 e
b100 b
b0 i
0D
0M
b10 c
1F
b0z000 h
b0z11 _
1A
0r
b111 U
1l
01
02
b111 @
16
1q
#1590000
0q
#1595000
06
1q
#1600000
0q
#1605000
0;
0=
1>
0Z
1W
0X
13
b10101010 4
b10101010 7
b10101010 ^
b10101010 t
15
1s
1j
1`
1L
b10 f
1T
b0 g
1k
b10 d
0o
0Q
1D
1S
0R
b1 i
b1000000 a
b0 e
1J
0E
1K
0P
1A
b0z00 _
0C
1B
b0z001 h
b11 b
1I
b101 c
b0 @
0l
0n
b0 U
0p
1r
16
1q
#1610000
0q
#1615000
06
1q
#1620000
0q
#1625000
0L
0j
0`
b100 e
b0 f
1T
1R
1m
0k
0K
b0 a
b10 d
b10 b
b10 i
0B
0S
b100 c
1E
b0z010 h
b0z01 _
1C
0r
b1 U
1l
11
12
b1 @
16
1q
#1630000
0q
#1635000
06
1q
#1640000
0q
#1645000
0s
1j
1`
1L
b10 f
b100 g
1T
b10000 a
b10 d
1Q
1k
0J
b100 e
b11 i
0A
0R
1K
b0z011 h
b0z00 _
b1 b
1B
b111 c
02
b10 @
01
0l
b10 U
1n
1r
16
1q
#1650000
0q
#1655000
06
1q
#1660000
0q
#1665000
0L
0j
0`
b0 f
1T
1o
b0 g
b1 d
1P
0m
0k
0I
b0 a
b10 e
b0 b
b100 i
0D
0Q
b110 c
1J
b0z100 h
b0z11 _
1A
0r
b11 U
1l
11
12
b11 @
16
1q
#1670000
0q
#1675000
06
1q
#1680000
0q
#1685000
05
1s
1j
1`
1L
b1 f
1T
b10 g
b1 d
1k
b100 a
1o
0M
1D
1O
0N
b101 i
b10 e
1F
0H
1G
0P
1A
b0z00 _
0C
1B
b0z101 h
b111 b
1I
b1 c
02
b100 @
01
0l
0n
b100 U
1p
1r
16
1q
#1690000
0q
#1695000
06
1q
#1700000
0q
#1705000
0L
0j
0`
b0 f
1T
b0 g
b1 d
1N
1m
0k
0G
b0 a
b1 e
b110 b
b110 i
0B
0O
b0 c
1H
b0z110 h
b0z01 _
1C
0r
b101 U
1l
11
12
b101 @
16
1q
#1710000
0q
#1715000
06
1q
#1720000
0q
#1725000
0s
1j
1`
1L
b1 f
b1 g
1T
b1 a
b1 d
1M
1k
0F
b1 e
b111 i
0A
0N
1G
b0z111 h
b0z00 _
b101 b
1B
b11 c
02
b110 @
01
0l
b110 U
1n
1r
16
1q
#1730000
0q
#1735000
06
1q
#1740000
0q
#1745000
0L
0j
0`
b0 f
0T
0o
b0 g
b0 d
0m
0k
b0 a
b0 e
b100 b
b0 i
0D
0M
b10 c
1F
b0z000 h
b0z11 _
1A
0r
b111 U
1l
11
12
b111 @
16
1q
#1750000
0q
#1755000
06
1q
#1760000
0q
#1765000
19
1=
1X
1\
b11101110 4
b11101110 7
b11101110 ^
b11101110 t
15
1s
1j
1`
1L
b0 g
b10 f
1T
1k
b1000000 a
b10 d
0o
0Q
1D
1S
0R
b1 i
b0 e
1J
0E
1K
0P
1A
b0z00 _
0C
1B
b0z001 h
b11 b
1I
b101 c
02
b0 @
01
0l
0n
b0 U
0p
1r
16
1q
#1770000
0q
#1775000
06
1q
#1780000
0q
#1785000
b100 g
1L
1j
1`
b100 e
b10 f
1T
1R
1m
0k
0K
b100000 a
b10 d
b10 b
b10 i
0B
0S
b100 c
1E
b0z010 h
b0z01 _
1C
0r
b1 U
1l
11
12
b1 @
16
1q
#1790000
0q
#1795000
06
1q
#1800000
0q
#1805000
0s
1L
1j
1`
b10 f
1T
b100 g
b10 d
1Q
1k
0J
b10000 a
b100 e
b11 i
0A
0R
1K
b0z011 h
b0z00 _
b1 b
1B
b111 c
b10 @
0l
b10 U
1n
1r
16
1q
#1810000
0q
#1815000
06
1q
#1820000
0q
#1825000
0L
0j
0`
b0 f
1T
1o
b0 g
b1 d
1P
0m
0k
0I
b0 a
b10 e
b0 b
b100 i
0D
0Q
b110 c
1J
b0z100 h
b0z11 _
1A
0r
b11 U
1l
b11 @
16
1q
#1830000
0q
#1835000
06
1q
#1840000
0q
#1845000
05
1s
1j
1`
1L
b1 f
1T
b10 g
b1 d
1k
b100 a
1o
0M
1D
1O
0N
b101 i
b10 e
1F
0H
1G
0P
1A
b0z00 _
0C
1B
b0z101 h
b111 b
1I
b1 c
02
b100 @
01
0l
0n
b100 U
1p
1r
16
1q
#1850000
0q
#1855000
06
1q
#1860000
0q
#1865000
1L
1j
1`
b1 f
1T
b1 g
b1 d
1N
1m
0k
0G
b10 a
b1 e
b110 b
b110 i
0B
0O
b0 c
1H
b0z110 h
b0z01 _
1C
0r
b101 U
1l
11
12
b101 @
16
1q
#1870000
0q
#1875000
06
1q
#1880000
0q
#1885000
0s
1L
1j
1`
b1 f
1T
b1 g
b1 d
1M
1k
0F
b1 a
b1 e
b111 i
0A
0N
1G
b0z111 h
b0z00 _
b101 b
1B
b11 c
b110 @
0l
b110 U
1n
1r
16
1q
#1890000
0q
#1895000
06
1q
#1900000
0q
#1905000
0L
0j
0`
b0 f
0T
0o
b0 g
b0 d
0m
0k
b0 a
b0 e
b100 b
b0 i
0D
0M
b10 c
1F
b0z000 h
b0z11 _
1A
0r
b111 U
1l
b111 @
16
1q
#1910000
0q
#1915000
06
1q
#1920000
0q
#1925000
15
1s
1j
1`
1L
b10 f
1T
b0 g
1k
b10 d
b1000000 a
0o
0Q
1D
1S
0R
b1 i
b0 e
1J
0E
1K
0P
1A
b0z00 _
0C
1B
b0z001 h
b11 b
1I
b101 c
02
b0 @
01
0l
0n
b0 U
0p
1r
16
1q
#1930000
0q
#1935000
06
1q
#1940000
0q
#1945000
b100 g
1L
1j
1`
b100 e
b10 f
1T
1R
1m
0k
0K
b100000 a
b10 d
b10 b
b10 i
0B
0S
b100 c
1E
b0z010 h
b0z01 _
1C
0r
b1 U
1l
11
12
b1 @
16
1q
#1950000
0q
#1955000
06
1q
#1960000
0q
#1965000
0s
1L
1j
1`
b10 f
1T
b100 g
b10 d
1Q
1k
0J
b10000 a
b100 e
b11 i
0A
0R
1K
b0z011 h
b0z00 _
b1 b
1B
b111 c
b10 @
0l
b10 U
1n
1r
16
1q
#1970000
0q
#1975000
06
1q
#1980000
0q
#1985000
0L
0j
0`
b0 f
1T
1o
b0 g
b1 d
1P
0m
0k
0I
b0 a
b10 e
b0 b
b100 i
0D
0Q
b110 c
1J
b0z100 h
b0z11 _
1A
0r
b11 U
1l
b11 @
16
1q
#1990000
0q
#1995000
06
1q
#2000000
0q
#2005000
05
1s
1j
1`
1L
b1 f
1T
b10 g
b1 d
1k
b100 a
1o
0M
1D
1O
0N
b101 i
b10 e
1F
0H
1G
0P
1A
b0z00 _
0C
1B
b0z101 h
b111 b
1I
b1 c
02
b100 @
01
0l
0n
b100 U
1p
1r
16
1q
#2010000
0q
#2015000
06
1q
#2020000
0q
#2025000
1L
1j
1`
b1 f
1T
b1 g
b1 d
1N
1m
0k
0G
b10 a
b1 e
b110 b
b110 i
0B
0O
b0 c
1H
b0z110 h
b0z01 _
1C
0r
b101 U
1l
11
12
b101 @
16
1q
#2030000
0q
#2035000
06
1q
#2040000
0q
#2045000
0s
1L
1j
1`
b1 f
1T
b1 g
b1 d
1M
1k
0F
b1 a
b1 e
b111 i
0A
0N
1G
b0z111 h
b0z00 _
b101 b
1B
b11 c
b110 @
0l
b110 U
1n
1r
16
1q
#2050000
0q
#2055000
06
1q
#2060000
0q
#2065000
0L
0j
0`
b0 f
0T
0o
b0 g
b0 d
0m
0k
b0 a
b0 e
b100 b
b0 i
0D
0M
b10 c
1F
b0z000 h
b0z11 _
1A
0r
b111 U
1l
b111 @
16
1q
#2070000
0q
#2075000
06
1q
#2080000
0q
#2085000
09
1;
0>
1Z
0W
0\
03
b11001100 4
b11001100 7
b11001100 ^
b11001100 t
15
1s
1j
1`
1L
b10 f
1T
b0 g
1k
b10 d
b1000000 a
0o
0Q
1D
1S
0R
b1 i
b0 e
1J
0E
1K
0P
1A
b0z00 _
0C
1B
b0z001 h
b11 b
1I
b101 c
02
b0 @
01
0l
0n
b0 U
0p
1r
16
1q
#2090000
0q
#2095000
06
1q
#2100000
0q
#2105000
0L
0j
0`
b100 e
b0 f
1T
1R
1m
0k
0K
b0 a
b10 d
b10 b
b10 i
0B
0S
b100 c
1E
b0z010 h
b0z01 _
1C
0r
b1 U
1l
11
12
b1 @
16
1q
#2110000
0q
#2115000
06
1q
#2120000
0q
#2125000
0s
1j
1`
1L
b10 f
b100 g
1T
b10000 a
b10 d
1Q
1k
0J
b100 e
b11 i
0A
0R
1K
b0z011 h
b0z00 _
b1 b
1B
b111 c
02
b10 @
01
0l
b10 U
1n
1r
16
1q
#2130000
0q
#2135000
06
1q
#2140000
0q
#2145000
1L
1j
1`
b1 f
1T
1o
b10 g
b1 d
1P
0m
0k
0I
b1000 a
b10 e
b0 b
b100 i
0D
0Q
b110 c
1J
b0z100 h
b0z11 _
1A
0r
b11 U
1l
11
12
b11 @
16
1q
#2150000
0q
#2155000
06
1q
#2160000
0q
#2165000
05
1s
1L
1j
1`
b1 f
1T
b10 g
b1 d
1k
1o
0M
1D
1O
0N
b101 i
b100 a
b10 e
1F
0H
1G
0P
1A
b0z00 _
0C
1B
b0z101 h
b111 b
1I
b1 c
b100 @
0l
0n
b100 U
1p
1r
16
1q
#2170000
0q
#2175000
06
1q
#2180000
0q
#2185000
1L
1j
1`
b1 f
1T
b1 g
b1 d
1N
1m
0k
0G
b10 a
b1 e
b110 b
b110 i
0B
0O
b0 c
1H
b0z110 h
b0z01 _
1C
0r
b101 U
1l
b101 @
16
1q
#2190000
0q
#2195000
06
1q
#2200000
0q
#2205000
0s
0L
0j
0`
b0 f
1T
b0 g
b1 d
1M
1k
0F
b0 a
b1 e
b111 i
0A
0N
1G
b0z111 h
b0z00 _
b101 b
1B
b11 c
b110 @
0l
b110 U
1n
1r
16
1q
#2210000
0q
#2215000
06
1q
#2220000
0q
#2225000
0T
0o
b0 d
0m
0k
b0 e
b100 b
b0 i
0D
0M
b10 c
1F
b0z000 h
b0z11 _
1A
0r
b111 U
1l
01
02
b111 @
16
1q
#2230000
0q
#2235000
06
1q
#2240000
0q
#2245000
0=
1>
1?
1W
0X
1V
13
b10111011 4
b10111011 7
b10111011 ^
b10111011 t
15
1s
1j
1`
1L
b10 f
1T
b0 g
1k
b10 d
0o
0Q
1D
1S
0R
b1 i
b1000000 a
b0 e
1J
0E
1K
0P
1A
b0z00 _
0C
1B
b0z001 h
b11 b
1I
b101 c
b0 @
0l
0n
b0 U
0p
1r
16
1q
